module gitlab.com/bichon-project/tview

go 1.12

require (
	github.com/gdamore/tcell v1.4.0 // indirect
	github.com/gdamore/tcell/v2 v2.2.0
	github.com/lucasb-eyer/go-colorful v1.2.0
	github.com/mattn/go-runewidth v0.0.10
	github.com/rivo/uniseg v0.2.0
	golang.org/x/sys v0.0.0-20210309074719-68d13333faf2 // indirect
	golang.org/x/term v0.0.0-20210220032956-6a3ed077a48d // indirect
	golang.org/x/text v0.3.5 // indirect
)
